{
  "code": 0,
  "message": "ok",
  "data": {
    "pager": {
      "hasMore": true,
      "nextPage": "2",
      "page": "1",
      "perPage": 10,
      "totalCount": 163
    },
    "items": [
      {
        "subjectId": "5659063570080875400",
        "subjectType": 1,
        "title": "Extraction II",
        "description": "",
        "releaseDate": "2023-06-16",
        "duration": 7320,
        "genre": "Action,Crime,Thriller",
        "cover": {
          "url": "https://pbcdnw.aoneroom.com/image/2026/01/26/16e47edeb767e52344d321778cda1767.jpg",
          "width": 1013,
          "height": 1500,
          "size": 230677,
          "format": "jpg",
          "thumbnail": "",
          "blurHash": "eHB|dCD%kXaJj]u6%MXAjER+tRkXt6bHWCtRbHRiWVxuX8M{s:W=of",
          "gif": null,
          "avgHueLight": "#565e6d",
          "avgHueDark": "#555a66",
          "id": "0"
        },
        "countryName": "Czech Rep.",
        "imdbRatingValue": "7.0",
        "subtitles": "English,Filipino,Français,Indonesian,Kiswahili,Malay,Português,Русский,اَلْعَرَبِيَّةُ,اُردُو,هَرْشٜن هَوْس,বাংলা,ਪੰਜਾਬੀ,中文",
        "ops": "{\"rid\":\"6e440f8f-9e04-4f18-8a37-b2c854d44102\",\"trace_id\":\"0a21c9bd177014354342402205d85183\",\"search_abt\":\"1267\"}",
        "hasResource": true,
        "trailer": null,
        "detailPath": "extraction-ii-S9NYoEpz2K6",
        "staffList": [],
        "appointmentCnt": 0,
        "appointmentDate": "",
        "corner": "",
        "imdbRatingCount": 170428,
        "stills": {
          "url": "https://pbcdnw.aoneroom.com/image/2023/06/30/611a6eaf231efb121f06a5b626d85d9c.webp",
          "width": 854,
          "height": 480,
          "size": 12156,
          "format": "webp",
          "thumbnail": "",
          "blurHash": "e35}ptD*0L~Vt7?HIUIU%2n+01xZ?GE1Rj9t%M-:E1baD*t7t6RQt6",
          "gif": null,
          "avgHueLight": "#252a25",
          "avgHueDark": "#272a27",
          "id": "0"
        },
        "postTitle": "PAINFUL & PREPOSTEROUS"
      },
      {
        "subjectId": "4386594907448820696",
        "subjectType": 1,
        "title": "Extraction II [Indonesian]",
        "description": "",
        "releaseDate": "2023-06-16",
        "duration": 7320,
        "genre": "Action,Crime,Thriller",
        "cover": {
          "url": "https://pbcdnw.aoneroom.com/image/2024/08/12/66242f2262445308b36c5dcbc2e8d308.jpg",
          "width": 1013,
          "height": 1500,
          "size": 230677,
          "format": "jpg",
          "thumbnail": "",
          "blurHash": "eHB|dCD%kXaJj]u6%MXAjER+tRkXt6bHWCtRbHRiWVxuX8M{s:W=of",
          "gif": null,
          "avgHueLight": "#565e6d",
          "avgHueDark": "#515866",
          "id": "0"
        },
        "countryName": "Czech Rep.",
        "imdbRatingValue": "7.0",
        "subtitles": "",
        "ops": "{\"rid\":\"6e440f8f-9e04-4f18-8a37-b2c854d44102\",\"trace_id\":\"0a21c9bd177014354342402205d85183\",\"search_abt\":\"1267\"}",
        "hasResource": true,
        "trailer": null,
        "detailPath": "extraction-ii-indonesian-C9vDEgnE2e5",
        "staffList": [],
        "appointmentCnt": 0,
        "appointmentDate": "",
        "corner": "Indonesian",
        "imdbRatingCount": 170428,
        "stills": {
          "url": "https://pbcdnw.aoneroom.com/image/2023/06/30/611a6eaf231efb121f06a5b626d85d9c.webp",
          "width": 854,
          "height": 480,
          "size": 12156,
          "format": "webp",
          "thumbnail": "",
          "blurHash": "e35}ptD*0L~Vt7?HIUIU%2n+01xZ?GE1Rj9t%M-:E1baD*t7t6RQt6",
          "gif": null,
          "avgHueLight": "#252a25",
          "avgHueDark": "#272a27",
          "id": "0"
        },
        "postTitle": "Extraction 2"
      },
      {
        "subjectId": "2224200940641471504",
        "subjectType": 1,
        "title": "Extraction 2 [Indonesian]",
        "description": "",
        "releaseDate": "2023-09-02",
        "duration": 0,
        "genre": "Action,Crime",
        "cover": {
          "url": "https://pbcdnw.aoneroom.com/image/2025/08/26/99e8c41fec89763e86c8906b54d48462.jpg",
          "width": 600,
          "height": 889,
          "size": 135132,
          "format": "jpg",
          "thumbnail": "",
          "blurHash": "eTE-?Q58n$ShWB^hRja$NdWA%Kn$NHW;Rk~TIpaLxZRk%JaeWEofe.",
          "gif": null,
          "avgHueLight": "#68472a",
          "avgHueDark": "#66482e",
          "id": "0"
        },
        "countryName": "United States",
        "imdbRatingValue": "6.0",
        "subtitles": "",
        "ops": "{\"rid\":\"6e440f8f-9e04-4f18-8a37-b2c854d44102\",\"trace_id\":\"0a21c9bd177014354342402205d85183\",\"search_abt\":\"1267\"}",
        "hasResource": true,
        "trailer": null,
        "detailPath": "extraction-2-indonesian-W9eANQyRiE2",
        "staffList": [],
        "appointmentCnt": 0,
        "appointmentDate": "",
        "corner": "Indonesian",
        "imdbRatingCount": 0,
        "stills": {
          "url": "https://pbcdnw.aoneroom.com/image/2025/09/08/262ce85c69b9ac707a992253fe816664.jpg",
          "width": 600,
          "height": 380,
          "size": 23559,
          "format": "jpg",
          "thumbnail": "",
          "blurHash": "eQE:9:E2_3WBIU~qM{xut7M{4nxaD%xtj[9FxtM{Rjt7DjaxWBM{t7",
          "gif": null,
          "avgHueLight": "#5e6663",
          "avgHueDark": "#636665",
          "id": "0"
        },
        "postTitle": "Extraction 2"
      },
      {
        "subjectId": "8835366293357350488",
        "subjectType": 1,
        "title": "Extraction",
        "description": "",
        "releaseDate": "2020-04-24",
        "duration": 6960,
        "genre": "Action,Crime,Thriller",
        "cover": {
          "url": "https://pbcdnw.aoneroom.com/image/2026/01/26/faedc106cd2e8a7e7796093be48aeecd.jpg",
          "width": 1500,
          "height": 2222,
          "size": 371096,
          "format": "jpg",
          "thumbnail": "",
          "blurHash": "eQCGJc01t7%MIU_29Gxtt7M{t6RjxtRjjZRjjutQM{ofNHoKozRjj[",
          "gif": null,
          "avgHueLight": "#4c4743",
          "avgHueDark": "#4c4947",
          "id": "0"
        },
        "countryName": "United States",
        "imdbRatingValue": "6.8",
        "subtitles": "English,Filipino,Français,Indonesian,Kiswahili,Malay,Português,Русский,اَلْعَرَبِيَّةُ,اُردُو,هَرْشٜن هَوْس,বাংলা,ਪੰਜਾਬੀ,中文",
        "ops": "{\"rid\":\"6e440f8f-9e04-4f18-8a37-b2c854d44102\",\"trace_id\":\"0a21c9bd177014354342402205d85183\",\"search_abt\":\"1267\"}",
        "hasResource": true,
        "trailer": null,
        "detailPath": "extraction-MkIW5jq4Gwa",
        "staffList": [],
        "appointmentCnt": 0,
        "appointmentDate": "",
        "corner": "",
        "imdbRatingCount": 286480,
        "stills": {
          "url": "https://pbcdnw.aoneroom.com/image/2023/06/09/fa14ce5a97d15e3781c19927bc9dd388.webp",
          "width": 854,
          "height": 480,
          "size": 26834,
          "format": "webp",
          "thumbnail": "",
          "blurHash": "eKEL7*^ixr%0e;^iR+WCWVR+0hIpWCRkoeEMxZoeoes:EMRkRkbHWV",
          "gif": null,
          "avgHueLight": "#63482b",
          "avgHueDark": "#63492e",
          "id": "0"
        },
        "postTitle": "Extraction - Movie Review"
      },
      {
        "subjectId": "38662449490444536",
        "subjectType": 1,
        "title": "Extraction",
        "description": "",
        "releaseDate": "2015-12-18",
        "duration": 4920,
        "genre": "Action,Thriller",
        "cover": {
          "url": "https://pbcdnw.aoneroom.com/image/2026/01/27/2cd00e137f10eeb2bb660c7932f25816.jpg",
          "width": 1000,
          "height": 1477,
          "size": 295893,
          "format": "jpg",
          "thumbnail": "",
          "blurHash": "eiMQbUjF~qxuxuR5oetQe.WV_3kBM{j[M{%goJogRkV@o#kCWVWCe.",
          "gif": null,
          "avgHueLight": "#99868a",
          "avgHueDark": "#665d5f",
          "id": "0"
        },
        "countryName": "United States",
        "imdbRatingValue": "4.1",
        "subtitles": "English,Filipino,Français,Indonesian,Kiswahili,Português,Русский,اَلْعَرَبِيَّةُ,اُردُو,هَرْشٜن هَوْس,বাংলা,ਪੰਜਾਬੀ,中文",
        "ops": "{\"rid\":\"6e440f8f-9e04-4f18-8a37-b2c854d44102\",\"trace_id\":\"0a21c9bd177014354342402205d85183\",\"search_abt\":\"1267\"}",
        "hasResource": true,
        "trailer": null,
        "detailPath": "extraction-WbJCt6C4R2",
        "staffList": [],
        "appointmentCnt": 0,
        "appointmentDate": "",
        "corner": "",
        "imdbRatingCount": 12409,
        "stills": {
          "url": "https://pbcdnw.aoneroom.com/image/2023/03/23/6569276decf762d4baee48bee72bbf96.jpg",
          "width": 480,
          "height": 360,
          "size": 10944,
          "format": "jpg",
          "thumbnail": "",
          "blurHash": "eE5Y+-X:MxsjacZ#Z~bbf,ogHqnftRR.f,pyk@nii]V?Z~VsWYozj]",
          "gif": null,
          "avgHueLight": "#22343b",
          "avgHueDark": "#22343b",
          "id": "0"
        },
        "postTitle": "Captializing on Willis Name"
      },
      {
        "subjectId": "9139349480511358168",
        "subjectType": 1,
        "title": "Extraction [Indonesian]",
        "description": "",
        "releaseDate": "2020-04-24",
        "duration": 0,
        "genre": "Action,Drama",
        "cover": {
          "url": "https://pbcdnw.aoneroom.com/image/2025/05/01/830a11a9d0131a7c24ed3c21cd16ae5c.jpg",
          "width": 315,
          "height": 420,
          "size": 25262,
          "format": "jpg",
          "thumbnail": "",
          "blurHash": "eQCZR:01oy%MIB_29Gt7xuM{xtNGt7WCWBRjaft7RjoeWVoKkCV@WU",
          "gif": null,
          "avgHueLight": "#4f4a46",
          "avgHueDark": "#4f4a46",
          "id": "0"
        },
        "countryName": "United States",
        "imdbRatingValue": "7.1",
        "subtitles": "",
        "ops": "{\"rid\":\"6e440f8f-9e04-4f18-8a37-b2c854d44102\",\"trace_id\":\"0a21c9bd177014354342402205d85183\",\"search_abt\":\"1267\"}",
        "hasResource": true,
        "trailer": null,
        "detailPath": "extraction-indonesian-GNAOJMGj8Ta",
        "staffList": [],
        "appointmentCnt": 0,
        "appointmentDate": "",
        "corner": "Indonesian",
        "imdbRatingCount": 0,
        "stills": null,
        "postTitle": "Extraction"
      },
      {
        "subjectId": "4892526842143540160",
        "subjectType": 1,
        "title": "Gladiator II",
        "description": "",
        "releaseDate": "2024-11-22",
        "duration": 8880,
        "genre": "Action,Adventure,Drama",
        "cover": {
          "url": "https://pbcdnw.aoneroom.com/image/2026/01/21/e24126bf4602b6184ebced63981cf998.jpg",
          "width": 878,
          "height": 1300,
          "size": 246517,
          "format": "jpg",
          "thumbnail": "",
          "blurHash": "eJCiN%Rkt6xaIq~UaeWXoyR+kVniNHbHs.$#WVoKf6jZWBX7j?WBoL",
          "gif": null,
          "avgHueLight": "#5b4633",
          "avgHueDark": "#5b4837",
          "id": "0"
        },
        "countryName": "United Kingdom",
        "imdbRatingValue": "6.5",
        "subtitles": "English,Filipino,Français,Indonesian,Português,Русский,اَلْعَرَبِيَّةُ,اُردُو,বাংলা",
        "ops": "{\"rid\":\"6e440f8f-9e04-4f18-8a37-b2c854d44102\",\"trace_id\":\"0a21c9bd177014354342402205d85183\",\"search_abt\":\"1267\"}",
        "hasResource": true,
        "trailer": null,
        "detailPath": "gladiator-ii-0SPYaH8PpP5",
        "staffList": [],
        "appointmentCnt": 0,
        "appointmentDate": "",
        "corner": "",
        "imdbRatingCount": 286357,
        "stills": null,
        "postTitle": "Gladiator II [CAM]_1080P"
      },
      {
        "subjectId": "7401713079752738976",
        "subjectType": 1,
        "title": "Creed II",
        "description": "",
        "releaseDate": "2018-11-21",
        "duration": 7800,
        "genre": "Action,Drama,Sport",
        "cover": {
          "url": "https://pbcdnw.aoneroom.com/image/2026/01/27/b8302dfe3891b0201f246041d0875e97.jpg",
          "width": 1275,
          "height": 1889,
          "size": 460281,
          "format": "jpg",
          "thumbnail": "",
          "blurHash": "eLFiMo~pWD?v.8_3%Mofx]%MT1%Lf5R+of?w-;t7o#a}IUozxuogof",
          "gif": null,
          "avgHueLight": "#736e6a",
          "avgHueDark": "#666462",
          "id": "0"
        },
        "countryName": "United States",
        "imdbRatingValue": "7.1",
        "subtitles": "English,Filipino,Français,Indonesian,Kiswahili,Português,Русский,اَلْعَرَبِيَّةُ,اُردُو,هَرْشٜن هَوْس,বাংলা,ਪੰਜਾਬੀ,中文",
        "ops": "{\"rid\":\"6e440f8f-9e04-4f18-8a37-b2c854d44102\",\"trace_id\":\"0a21c9bd177014354342402205d85183\",\"search_abt\":\"1267\"}",
        "hasResource": true,
        "trailer": null,
        "detailPath": "creed-ii-uzMrYvjVLO8",
        "staffList": [],
        "appointmentCnt": 0,
        "appointmentDate": "",
        "corner": "",
        "imdbRatingCount": 168122,
        "stills": {
          "url": "https://pbcdnw.aoneroom.com/image/2023/03/23/46552ea96a94aa3e5355f69376b60b88.jpg",
          "width": 1920,
          "height": 1080,
          "size": 63618,
          "format": "jpg",
          "thumbnail": "",
          "blurHash": "eIDli_D%~VM{M{~WNGWBa}E10KxuD*xabH9Zt7s;jZ-p9ZoyWBWBt7",
          "gif": null,
          "avgHueLight": "#594e49",
          "avgHueDark": "#594e49",
          "id": "0"
        },
        "postTitle": "Seriously considered walking straight into the next showing when it was over"
      },
      {
        "subjectId": "6987251263276994352",
        "subjectType": 1,
        "title": "Blade II",
        "description": "",
        "releaseDate": "2002-03-22",
        "duration": 7020,
        "genre": "Action,Horror,Sci-Fi",
        "cover": {
          "url": "https://pbcdnw.aoneroom.com/image/2026/01/27/94279f22a657effd52e6efb3f3661a50.jpg",
          "width": 800,
          "height": 1184,
          "size": 102318,
          "format": "jpg",
          "thumbnail": "",
          "blurHash": "eYG+RHM{~qt7t7V[IUWBWBIU%MWBIUWBofoLt7t7j[WB%MkBWBfjWB",
          "gif": null,
          "avgHueLight": "#7d7981",
          "avgHueDark": "#656466",
          "id": "0"
        },
        "countryName": "United States",
        "imdbRatingValue": "6.7",
        "subtitles": "English,Filipino,Français,Indonesian,Kiswahili,Português,Русский,اَلْعَرَبِيَّةُ,اُردُو,هَرْشٜن هَوْس,বাংলা,ਪੰਜਾਬੀ,中文",
        "ops": "{\"rid\":\"6e440f8f-9e04-4f18-8a37-b2c854d44102\",\"trace_id\":\"0a21c9bd177014354342402205d85183\",\"search_abt\":\"1267\"}",
        "hasResource": true,
        "trailer": null,
        "detailPath": "blade-ii-6r0YsOsG9k8",
        "staffList": [],
        "appointmentCnt": 0,
        "appointmentDate": "",
        "corner": "",
        "imdbRatingCount": 250649,
        "stills": {
          "url": "https://pbcdnw.aoneroom.com/image/2023/03/23/f8764a10f08d96c95cc58dad050b6fc2.jpg",
          "width": 480,
          "height": 360,
          "size": 18939,
          "format": "jpg",
          "thumbnail": "",
          "blurHash": "e46[8U_34UIU?vx[ozRkxtx[9FM{x]xuM{-;xuRPM{x]D%of-;xuRj",
          "gif": null,
          "avgHueLight": "#2a2c27",
          "avgHueDark": "#2b2c29",
          "id": "0"
        },
        "postTitle": "Great Style, Great Movie, But Doesn't Quite Match The First."
      },
      {
        "subjectId": "6832221541099783208",
        "subjectType": 1,
        "title": "Titanic II",
        "description": "",
        "releaseDate": "2010-08-24",
        "duration": 5400,
        "genre": "Action,Adventure,Drama",
        "cover": {
          "url": "https://pbcdnw.aoneroom.com/image/2026/01/27/a1ad5a44cc5396797927040370ef4740.jpg",
          "width": 462,
          "height": 650,
          "size": 77675,
          "format": "jpg",
          "thumbnail": "",
          "blurHash": "eCF?Osxb00x]Di8_M_NFozjZtSWAIARiW:IAt7-;V@R*jYtRbIkCxu",
          "gif": null,
          "avgHueLight": "#748486",
          "avgHueDark": "#5c6566",
          "id": "0"
        },
        "countryName": "United States",
        "imdbRatingValue": "1.7",
        "subtitles": "English,Filipino,Français,Indonesian,Português,Русский,اَلْعَرَبِيَّةُ,اُردُو,বাংলা,ਪੰਜਾਬੀ,中文",
        "ops": "{\"rid\":\"6e440f8f-9e04-4f18-8a37-b2c854d44102\",\"trace_id\":\"0a21c9bd177014354342402205d85183\",\"search_abt\":\"1267\"}",
        "hasResource": true,
        "trailer": null,
        "detailPath": "titanic-ii-EscvgC7EH88",
        "staffList": [],
        "appointmentCnt": 0,
        "appointmentDate": "",
        "corner": "",
        "imdbRatingCount": 13745,
        "stills": {
          "url": "https://pbcdnw.aoneroom.com/image/2023/05/23/fb7ae2fa3ff777d33773f29c89319e3d.jpg",
          "width": 1024,
          "height": 682,
          "size": 43900,
          "format": "jpg",
          "thumbnail": "",
          "blurHash": "eA7nXb9F9w~AE5-VM{SO$%NIEMxExuIUxuIpxCxuInt7NIs.s,NHt7",
          "gif": null,
          "avgHueLight": "#29372e",
          "avgHueDark": "#2c3730",
          "id": "0"
        },
        "postTitle": "What a ridiculous excuse for a film"
      }
    ],
    "counts": [
      {
        "subjectType": 0,
        "name": "All",
        "num": 0
      },
      {
        "subjectType": 1,
        "name": "Movies",
        "num": 0
      }
    ],
    "url": "",
    "referer": ""
  }
}